<svg xmlns="http://www.w3.org/2000/svg" width="40" height="40">
  <rect width="100%" height="100%" fill="none"/>
  <defs>
    <filter id="a" width="166.2%" height="118.3%" x="-33.1%" y="-9.1%" filterUnits="objectBoundingBox">
      <feOffset dx="2" dy="2" in="SourceAlpha" result="shadowOffsetOuter1"/>
      <feGaussianBlur in="shadowOffsetOuter1" result="shadowBlurOuter1" stdDeviation="10"/>
      <feColorMatrix in="shadowBlurOuter1" result="shadowMatrixOuter1" values="0 0 0 0 0.145098039 0 0 0 0 0.184313725 0 0 0 0 0.223529412 0 0 0 0.15 0"/>
      <feMerge>
        <feMergeNode in="shadowMatrixOuter1"/>
        <feMergeNode in="SourceGraphic"/>
      </feMerge>
    </filter>
  </defs>
  <g class="currentLayer">
    <circle cx="20" cy="20" r="19" fill="none" fill-rule="evenodd" stroke="#3b99fc" stroke-width="2" filter="url(#a)"/>
  </g>
</svg>